…
### Practical Example (DMARC)

Let’s see how the [world’s
colleges](https://raw.githubusercontent.com/Hipo/university-domains-list/master/world_universities_and_domains.json)
rate DMARC-wise.

We’ll take ^^ JSON and lookup DMARC records via the `zdnsr` package
(`hrbrmstr/zdnsr`).

``` r
(u_dmarc <- readRDS("ghdat/uinv_dmarc.rds")) # previously read in
```

    ## # A tibble: 9,738 x 5
    ##    name                                      country       alpha_two_code domains        dmarc                
    ##    <chr>                                     <chr>         <chr>          <chr>          <chr>                
    ##  1 Cégep de Saint-Jérôme                     Canada        CA             cstj.qc.ca     _dmarc.cstj.qc.ca    
    ##  2 Lindenwood University                     United States US             lindenwood.edu _dmarc.lindenwood.edu
    ##  3 DAV Institute of Engineering & Technology India         IN             davietjal.org  _dmarc.davietjal.org 
    ##  4 Lovely Professional University            India         IN             lpu.in         _dmarc.lpu.in        
    ##  5 Sullivan University                       United States US             sullivan.edu   _dmarc.sullivan.edu  
    ##  6 Florida State College at Jacksonville     United States US             fscj.edu       _dmarc.fscj.edu      
    ##  7 Xavier University                         United States US             xavier.edu     _dmarc.xavier.edu    
    ##  8 Tusculum College                          United States US             tusculum.edu   _dmarc.tusculum.edu  
    ##  9 Claremont School of Theology              United States US             cst.edu        _dmarc.cst.edu       
    ## 10 Somaiya Vidyavihar                        India         IN             somaiya.edu    _dmarc.somaiya.edu   
    ## # ... with 9,728 more rows
…
(dmarc_recs <- readRDS("ghdat/dmarc-recs.rds")) # what was previously looked up ^^
```

    ## # A tibble: 1,250 x 2
    ##    question             answer                                                                                         
    ##  * <chr>                <chr>                                                                                          
    ##  1 _dmarc.washjeff.edu  v=DMARC1; p=none                                                                               
    ##  2 _dmarc.barry.edu     v=DMARC1; p=none; rua=mailto:dmpost@barry.edu,mailto:7cc566d7@mxtoolbox.dmarc-report.com; ruf=…
    ##  3 _dmarc.yhc.edu       v=DMARC1; pct=100; p=none                                                                      
    ##  4 _dmarc.aacc.edu      v=DMARC1;p=none; rua=mailto:DKIM_DMARC@aacc.edu;ruf=mailto:DKIM_DMARC@aacc.edu;fo=1            
    ##  5 _dmarc.sagu.edu      v=DMARC1; p=none; rua=mailto:Office365contact@sagu.edu; ruf=mailto:Office365contact@sagu.edu   
    ##  6 _dmarc.colostate.edu v=DMARC1; p=none; pct=100; rua=mailto:re+anahykughvo@dmarc.postmarkapp.com; sp=none; aspf=r;   
    ##  7 _dmarc.wne.edu       v=DMARC1;p=quarantine;sp=none;fo=1;ri=86400;pct=50;rua=mailto:dmarcreply@wne.edu               
    ##  8 _dmarc.csuglobal.edu v=DMARC1; p=none;                                                                              
    ##  9 _dmarc.devry.edu     v=DMARC1; p=none; pct=100; rua=mailto:devry@rua.agari.com; ruf=mailto:devry@ruf.agari.com; fo=1
    ## 10 _dmarc.sullivan.edu  v=DMARC1; p=none; rua=mailto:mcambron@sullivan.edu; ruf=mailto:mcambron@sullivan.edu; fo=1     
    ## # ... with 1,240 more rows

``` r
left_join( # join them together
  u_dmarc, 
  bind_cols(
    dmarc_recs,
    parse_dmarc(dmarc_recs$answer) # parse the raw DMARC records
  ),
  by = c("dmarc"="question")
) %>% 
  mutate(p = ifelse(is.na(p), "NO_DMARC", p)) %>%  
  print() -> processed_dmarc
```

    ## # A tibble: 9,826 x 17
    ##    name   country  alpha_two_code domains  dmarc answer  v     p     is_valid adkim fo    rf    rua   ruf   pct   sp   
    ##    <chr>  <chr>    <chr>          <chr>    <chr> <chr>   <chr> <chr> <lgl>    <chr> <chr> <chr> <chr> <chr> <chr> <chr>
    ##  1 Cégep… Canada   CA             cstj.qc… _dma… <NA>    <NA>  NO_D… NA       <NA>  <NA>  <NA>  <NA>  <NA>  <NA>  <NA> 
    ##  2 Linde… United … US             lindenw… _dma… <NA>    <NA>  NO_D… NA       <NA>  <NA>  <NA>  <NA>  <NA>  <NA>  <NA> 
    ##  3 DAV I… India    IN             davietj… _dma… <NA>    <NA>  NO_D… NA       <NA>  <NA>  <NA>  <NA>  <NA>  <NA>  <NA> 
    ##  4 Lovel… India    IN             lpu.in   _dma… <NA>    <NA>  NO_D… NA       <NA>  <NA>  <NA>  <NA>  <NA>  <NA>  <NA> 
    ##  5 Sulli… United … US             sulliva… _dma… v=DMAR… dmar… none  TRUE     <NA>  1     <NA>  mail… mail… <NA>  <NA> 
    ##  6 Flori… United … US             fscj.edu _dma… <NA>    <NA>  NO_D… NA       <NA>  <NA>  <NA>  <NA>  <NA>  <NA>  <NA> 
    ##  7 Xavie… United … US             xavier.… _dma… <NA>    <NA>  NO_D… NA       <NA>  <NA>  <NA>  <NA>  <NA>  <NA>  <NA> 
    ##  8 Tuscu… United … US             tusculu… _dma… <NA>    <NA>  NO_D… NA       <NA>  <NA>  <NA>  <NA>  <NA>  <NA>  <NA> 
    ##  9 Clare… United … US             cst.edu  _dma… <NA>    <NA>  NO_D… NA       <NA>  <NA>  <NA>  <NA>  <NA>  <NA>  <NA> 
    ## 10 Somai… India    IN             somaiya… _dma… v=DMAR… dmar… quar… TRUE     <NA>  <NA>  <NA>  mail… <NA>  <NA>  <NA> 
    ## # ... with 9,816 more rows, and 1 more variable: ri <chr>
…
  ) %>% 
  print() %>% 
  ggplot(aes(country = alpha_two_code, fill = value)) +
  geom_wtg() +
  viridis::scale_fill_viridis(name = NULL, direction = -1, labels=scales::percent) +
  facet_wrap(~measure) +
  coord_equal() +
  labs(
    x=NULL, y=NULL, title = "DMARC Usage in Colleges by Country & Policy"
  ) +
  hrbrthemes::theme_ipsum_rc(grid="XY") + 
  theme_enhance_wtg()
```

    ## # A tibble: 816 x 3
    ##    alpha_two_code measure  value
    ##    <chr>          <fct>    <dbl>
    ##  1 AD             No DMARC 1    
    ##  2 AE             No DMARC 0.971
    ##  3 AF             No DMARC 0.976
    ##  4 AG             No DMARC 1    
    ##  5 AL             No DMARC 1    
    ##  6 AM             No DMARC 0.833
    ##  7 AO             No DMARC 1    
    ##  8 AR             No DMARC 0.852
    ##  9 AT             No DMARC 0.791
    ## 10 AU             No DMARC 0.627
    ## # ... with 806 more rows
…
